<?xml version="1.0" encoding="UTF-8" standalone="no"?>
<svg width="650px" height="325px" viewBox="0 0 650 325" version="1.1" xmlns="http://www.w3.org/2000/svg" xmlns:xlink="http://www.w3.org/1999/xlink">
    <defs></defs>
    <g id="Page-1" stroke="none" stroke-width="1" fill="none" fill-rule="evenodd">
        <g id="CaseStudies">
            <g id="noun_28381_cc" transform="translate(64.000000, 90.000000)">
                <g id="Group">
                    <path d="M98.536,0.454 L27.464,0.454 C12.57,0.454 0.454,12.572 0.454,27.464 L0.454,98.538 C0.454,113.43 12.572,125.548 27.464,125.548 L98.536,125.548 C113.43,125.548 125.548,113.43 125.548,98.538 L125.548,27.462 C125.546,12.57 113.43,0.454 98.536,0.454 L98.536,0.454 Z M85.042,20.456 C85.042,18.032 87.026,16.048 89.452,16.048 L102.68,16.048 C105.106,16.048 107.09,18.032 107.09,20.456 L107.09,33.686 C107.09,36.11 105.106,38.094 102.68,38.094 L89.452,38.094 C87.026,38.094 85.042,36.11 85.042,33.686 L85.042,20.456 L85.042,20.456 Z M98.536,118.908 L27.464,118.908 C16.232,118.908 7.092,109.77 7.092,98.536 L7.092,45.628 L36.222,45.628 C42.552,37.856 52.194,32.892 62.998,32.892 C73.802,32.892 83.446,37.856 89.776,45.628 L118.904,45.628 L118.904,98.536 C118.906,109.77 109.77,118.908 98.536,118.908 L98.536,118.908 Z" id="Shape" fill="#404040"></path>
                    <circle id="Oval" fill="#DB4B39" cx="63" cy="65.67" r="28.772"></circle>
                </g>
            </g>
            <g id="snapchat-seeklogo.com" transform="translate(443.000000, 20.000000)" fill="#404040">
                <path d="M75.4629173,138.156923 C75.0513385,138.156923 74.6593953,138.141538 74.3606253,138.127692 C74.1238424,138.147692 73.8793592,138.156923 73.634876,138.156923 C64.9963411,138.156923 59.2199922,134.076923 54.1231912,130.475385 C50.4698036,127.896538 47.024323,125.463077 42.9878475,124.791923 C41.005031,124.463846 39.0333798,124.297308 37.1279509,124.297308 C33.6951757,124.297308 30.9816047,124.829231 29.0007132,125.215769 C27.7817623,125.453462 26.730677,125.657692 25.9179147,125.657692 C25.0670362,125.657692 24.0340465,125.469231 23.602832,124 C23.2617106,122.840769 23.0160724,121.718077 22.7804444,120.635769 C22.1890646,117.933077 21.7593902,116.283462 20.7464212,116.127308 C9.91215762,114.457692 3.5105478,111.996923 2.23538501,109.018077 C2.10217054,108.704231 2.02709302,108.39 2.01015245,108.077692 C1.96048579,107.190385 2.58805685,106.411154 3.46511628,106.265769 C12.069,104.851154 19.7192067,100.307308 26.2051344,92.7584615 C31.229168,86.9146154 33.6963307,81.3307692 33.9616047,80.7138462 C33.97277,80.6857692 33.9866305,80.6565385 33.9997209,80.6307692 C35.2498579,78.0965385 35.4985762,75.9069231 34.7412558,74.1246154 C33.345199,70.8353846 28.7219638,69.37 25.6626512,68.4003846 C24.9022506,68.16 24.1826615,67.9323077 23.6089922,67.705 C20.8973463,66.635 16.4377416,64.3742308 17.0318165,61.2538462 C17.4645711,58.9784615 20.4772972,57.3942308 22.9121189,57.3942308 C23.5882016,57.3942308 24.1872817,57.5123077 24.6916486,57.7488462 C27.4429509,59.0369231 29.918584,59.6892308 32.0465504,59.6892308 C34.6938992,59.6892308 35.9725271,58.6826923 36.2816925,58.3961538 C36.2054599,56.9853846 36.1122868,55.4938462 36.0221938,54.0830769 C36.0221938,54.0811538 36.0202687,54.0642308 36.0202687,54.0642308 C35.3988579,44.1892308 34.6238269,31.9 37.7705375,24.8526923 C47.1887235,3.75807692 67.1620388,2.11730769 73.0577416,2.11730769 C73.2148269,2.11730769 75.6269328,2.09346154 75.6269328,2.09346154 C75.7362765,2.09153846 75.8544755,2.09038462 75.9769096,2.09038462 C81.8876279,2.09038462 101.90291,3.73230769 111.327256,24.84 C114.473966,31.8923077 113.69855,44.1923077 113.074829,54.0769231 L113.045568,54.5503846 C112.960481,55.8926923 112.881553,57.1630769 112.814946,58.3942308 C113.106016,58.6619231 114.27607,59.585 116.65622,59.6788462 C118.685623,59.6011538 121.017646,58.9515385 123.585682,57.75 C124.379964,57.3780769 125.258563,57.3003846 125.854948,57.3003846 C126.757034,57.3003846 127.674519,57.4757692 128.439925,57.7946154 L128.481121,57.8103846 C130.660295,58.5826923 132.087537,60.1273077 132.118339,61.7492308 C132.146059,63.2615385 131.021052,65.5219231 125.487646,67.705 C124.921292,67.9292308 124.198238,68.1584615 123.433987,68.4003846 C120.372364,69.3711538 115.752594,70.8353846 114.356537,74.1226923 C113.598062,75.9053846 113.847165,78.0946154 115.097687,80.6273077 C115.111548,80.6553846 115.123868,80.6826923 115.136574,80.7126923 C115.521587,81.6134615 124.840824,102.841538 145.633062,106.262692 C146.509351,106.408077 147.138078,107.188462 147.088026,108.074615 C147.069545,108.393077 146.992543,108.711538 146.858173,109.022692 C145.591481,111.985 139.190641,114.441923 128.352527,116.114231 C127.335323,116.271538 126.906804,117.913077 126.320429,120.601538 C126.077871,121.711923 125.831078,122.800385 125.493806,123.944615 C125.178481,125.020769 124.477372,125.546538 123.350439,125.546538 L123.180264,125.546538 C122.446429,125.546538 121.408049,125.413077 120.09708,125.156923 C117.806253,124.711538 115.237062,124.297308 111.969457,124.297308 C110.064413,124.297308 108.092762,124.463846 106.108406,124.791923 C102.07655,125.463077 98.6310698,127.893462 94.9846124,130.468077 C89.8785711,134.076923 84.1006822,138.156923 75.4629173,138.156923" id="Fill-3"></path>
                <path d="M75.9768711,0.3525 L75.9703258,0.3525 C75.8421165,0.3525 75.7212225,0.3525 75.6068736,0.354038462 C74.6920829,0.363269231 73.1874525,0.377884615 73.0530829,0.379423077 C69.7546773,0.379423077 63.1563258,0.844807692 56.068238,3.97019231 C52.014822,5.75596154 48.3699047,8.17057692 45.2335894,11.1471154 C41.4943439,14.6936538 38.4485067,19.0663462 36.1815506,24.1455769 C32.8615842,31.5825 33.6493207,44.1090385 34.2830519,54.1755769 L34.284592,54.1909615 C34.3527393,55.2694231 34.4239667,56.3951923 34.4890339,57.4917308 C34.0023775,57.7155769 33.211946,57.9513462 32.048437,57.9513462 C30.1757341,57.9513462 27.9484344,57.3532692 25.4312199,56.1748077 C24.6908401,55.8301923 23.8449667,55.6559615 22.9120804,55.6559615 C21.4136101,55.6559615 19.833132,56.0975 18.4628711,56.9017308 C16.7383982,57.9136538 15.6241708,59.3428846 15.3215506,60.9278846 C15.122114,61.9763462 15.1313543,64.0486538 17.4360416,66.1501923 C18.7035041,67.3071154 20.5654266,68.3740385 22.9682922,69.3225 C23.5989434,69.5705769 24.3474085,69.8075 25.1397651,70.0586538 C27.8906824,70.9313462 32.0542121,72.2517308 33.1403336,74.8040385 C33.690132,76.0986538 33.4541191,77.8013462 32.438455,79.8601923 C32.4115041,79.9163462 32.3853233,79.9713462 32.3606824,80.0294231 C32.1073439,80.6213462 29.7406695,85.9775 24.8845016,91.6267308 C22.125499,94.8382692 19.086977,97.5236538 15.8571036,99.6082692 C11.9149563,102.153269 7.65016822,103.816731 3.18093824,104.552115 C1.42681938,104.839808 0.1728323,106.401731 0.271395607,108.176731 C0.301426615,108.688269 0.421165633,109.198654 0.629457623,109.6925 C0.630997674,109.695577 0.632922739,109.698269 0.634462791,109.701346 C1.34365659,111.359038 2.9888168,112.7675 5.66427158,114.010577 C8.93264625,115.5275 13.8203853,116.8025 20.1915791,117.800577 C20.5134499,118.4125 20.8480261,119.949423 21.0790339,121.002115 C21.321207,122.120192 21.5737755,123.270192 21.9333775,124.491731 C22.3222406,125.815577 23.3294344,127.397115 25.9178762,127.397115 C26.8988891,127.397115 28.026977,127.175962 29.3337109,126.922885 C31.246455,126.547885 33.8626178,126.036346 37.1279124,126.036346 C38.9382432,126.036346 40.8144111,126.195577 42.7036695,126.508269 C46.3439667,127.114423 49.482207,129.328269 53.1128788,131.892885 C58.4275972,135.645962 64.443424,139.894423 73.6348375,139.894423 C73.8854809,139.894423 74.1365093,139.885577 74.3852276,139.868654 C74.6890028,139.8825 75.0651605,139.894423 75.4628788,139.894423 C84.6566023,139.894423 90.6708891,135.644423 95.9798323,131.894808 L95.9890726,131.887115 C99.6201295,129.325577 102.755675,127.114423 106.394817,126.508269 C108.28292,126.195577 110.158703,126.036346 111.969419,126.036346 C115.088409,126.036346 117.558266,126.434038 119.764005,126.863654 C121.203569,127.146731 122.321261,127.282885 123.180225,127.282885 L123.263773,127.284038 L123.350401,127.284038 C125.243509,127.284038 126.634561,126.245577 127.165494,124.429808 C127.518166,123.233269 127.770349,122.110577 128.018297,120.972885 C128.23506,119.986346 128.580416,118.406346 128.902287,117.787885 C135.276946,116.788654 140.16353,115.514423 143.43229,113.999423 C146.100814,112.7625 147.744434,111.355962 148.457863,109.704423 C148.67193,109.209808 148.79706,108.696346 148.825166,108.173654 C148.925654,106.401731 147.670512,104.837115 145.914853,104.549423 C126.053961,101.279808 117.106261,80.8932692 116.736649,80.0275 C116.712393,79.9701923 116.685827,79.9144231 116.657336,79.8586538 C115.642442,77.7994231 115.407584,76.0986538 115.958153,74.8021154 C117.041579,72.2517308 121.202414,70.9313462 123.955256,70.0586538 C124.752618,69.8075 125.503008,69.5694231 126.128654,69.3225 C128.83876,68.2532692 130.776145,67.0932692 132.053233,65.7759615 C133.579424,64.2055769 133.877039,62.7009615 133.858173,61.7163462 C133.811587,59.3340385 131.988166,57.2171154 129.089018,56.1805769 C128.109545,55.7763462 126.992238,55.5625 125.85491,55.5625 C125.080649,55.5625 123.93408,55.6686538 122.849114,56.1748077 C120.525561,57.2609615 118.443796,57.8544231 116.657336,57.9394231 C115.707124,57.8913462 115.040282,57.6851923 114.608682,57.4890385 C114.662584,56.5598077 114.723031,55.6051923 114.785018,54.6094231 L114.811199,54.1832692 C115.448011,44.1101923 116.238442,31.5740385 112.916936,24.1317308 C110.640354,19.0344231 107.583737,14.6505769 103.828706,11.0967308 C100.680455,8.11788462 97.0228323,5.70365385 92.9551708,3.91942308 C85.8778633,0.816346154 79.2795119,0.3525 75.9768711,0.3525 M75.9768711,3.82903846 C81.5422328,3.82903846 100.706636,5.3225 109.737884,25.5486538 C112.711339,32.2094231 111.949398,44.2740385 111.337998,53.9659615 C111.242514,55.5040385 111.147801,56.9948077 111.070414,58.4182692 L111.038073,59.0301923 L111.446956,59.4859615 C111.612127,59.6690385 113.158339,61.2828846 116.596119,61.4155769 L116.651561,61.4182692 L116.709313,61.4175 C118.982814,61.3305769 121.542765,60.6251923 124.323713,59.3244231 C124.733752,59.1328846 125.27893,59.0390385 125.85491,59.0390385 C126.512127,59.0390385 127.21054,59.1628846 127.786135,59.4048077 L127.872763,59.4394231 C129.330806,59.9501923 130.361486,60.9125 130.377272,61.7828846 C130.386127,62.2751923 130.01767,64.0486538 124.848871,66.0882692 C124.343734,66.2875 123.678432,66.4994231 122.908021,66.7421154 C119.544163,67.8090385 114.463148,69.4190385 112.75292,73.4444231 C111.790003,75.7128846 112.053352,78.3882692 113.536036,81.3975 C114.145897,82.8198077 123.746194,104.422885 145.350039,107.979038 C145.345804,108.080577 145.319238,108.1925 145.261486,108.325192 C144.894954,109.186731 142.567551,112.162885 128.084905,114.395577 C125.819104,114.743269 125.26353,117.280577 124.619788,120.230577 C124.387626,121.286731 124.150843,122.352115 123.825507,123.454038 C123.726558,123.786731 123.708078,123.805577 123.350401,123.805577 L123.180225,123.805577 C122.538024,123.805577 121.562786,123.672115 120.433158,123.450962 C118.375649,123.050577 115.563514,122.559038 111.969419,122.559038 C109.963502,122.559038 107.897137,122.733654 105.823843,123.078654 C101.392344,123.814423 97.787853,126.361346 93.9708349,129.056346 C88.8443879,132.675577 83.5462251,136.419038 75.4628788,136.419038 C75.109822,136.419038 74.7648504,136.407115 74.4198788,136.389423 L74.3282457,136.386346 L74.2369977,136.3925 C74.038716,136.410192 73.8388943,136.419038 73.6348375,136.419038 C65.5518762,136.419038 60.2517884,132.675577 55.1276514,129.056346 C51.3098633,126.361346 47.7038323,123.814423 43.2727186,123.078654 C41.2009641,122.733654 39.1330597,122.559038 37.1279124,122.559038 C33.5345868,122.559038 30.7201424,123.107885 28.6664835,123.509038 C27.5368556,123.729808 26.5581527,123.919423 25.9178762,123.919423 C25.3934886,123.919423 25.3838633,123.889038 25.2729796,123.509808 C24.9476437,122.4075 24.7104757,121.315962 24.4786979,120.261346 C23.8334163,117.308654 23.2778426,114.757115 21.0128116,114.409423 C6.53093566,112.175577 4.20353256,109.194038 3.83584522,108.334808 C3.77847829,108.200192 3.75306744,108.083654 3.74690724,107.981731 C25.3499822,104.428654 34.9487393,82.8244231 35.5605248,81.3975 C37.0455196,78.3901923 37.3088685,75.7144231 36.3432561,73.4444231 C34.6326437,69.4209615 29.5523982,67.8090385 26.1908504,66.7440385 C25.4181295,66.4994231 24.7528271,66.2875 24.2473052,66.0882692 C19.8827987,64.3659615 18.5402587,62.6301923 18.7396953,61.5786538 C18.9710881,60.3659615 21.0759537,59.1328846 22.9120804,59.1328846 C23.3251992,59.1328846 23.6867264,59.1994231 23.9539253,59.3244231 C26.9366204,60.7209615 29.6598168,61.4286538 32.048437,61.4286538 C35.8026979,61.4286538 37.473654,59.6840385 37.652685,59.4848077 L38.0596437,59.0301923 L38.0265326,58.4213462 C37.950685,56.9986538 37.8571269,55.5082692 37.7585636,53.9732692 C37.1490881,44.2786538 36.3863775,32.2217308 39.3594473,25.5613462 C48.3571992,5.40903846 67.4280442,3.85596154 73.0577031,3.85596154 C73.1966928,3.85596154 75.6438349,3.83019231 75.6438349,3.83019231 C75.7489434,3.83019231 75.8602121,3.82903846 75.9768711,3.82903846" id="Fill-5"></path>
            </g>
            <g id="Pinterest_Badge_Red" transform="translate(257.000000, 149.000000)">
                <path d="M164.9142,82.8911377 C164.9142,128.461746 128.0604,165.403964 82.5996,165.403964 C37.1388,165.403964 0.2856,128.461746 0.2856,82.8911377 C0.2856,37.3199275 37.1388,0.377710145 82.5996,0.377710145 C128.0604,0.377710145 164.9142,37.3199275 164.9142,82.8911377" id="Fill-1" fill="#FFFFFF"></path>
                <path d="M82.5042,9.53236957 C42.087,9.53236957 9.3222,42.3763116 9.3222,82.8911377 C9.3222,113.968623 28.611,140.512986 55.8342,151.201942 C55.1946,145.397957 54.6168,136.495304 56.0886,130.157833 C57.4176,124.433841 64.6698,93.6937681 64.6698,93.6937681 C64.6698,93.6937681 62.4804,89.3001812 62.4804,82.8033261 C62.4804,72.6033478 68.379,64.9877971 75.7224,64.9877971 C81.966,64.9877971 84.9816,69.6875217 84.9816,75.3212971 C84.9816,81.6154638 80.9844,91.0257391 78.921,99.7455507 C77.1972,107.048949 82.5738,113.003899 89.7576,113.003899 C102.7656,113.003899 112.7634,99.2541667 112.7634,79.4099493 C112.7634,61.8458261 100.1736,49.5648333 82.1946,49.5648333 C61.3722,49.5648333 49.1502,65.2211594 49.1502,81.4001449 C49.1502,87.7051377 51.5736,94.466029 54.5964,98.1414855 C55.194,98.8680362 55.2816,99.5043696 55.1034,100.244754 C54.5484,102.563341 53.3136,107.546348 53.0718,108.565203 C52.7526,109.908239 52.0104,110.192725 50.6244,109.546167 C41.4834,105.280688 35.7696,91.8852101 35.7696,81.1264855 C35.7696,57.9857246 52.5426,36.7341159 84.123,36.7341159 C109.509,36.7341159 129.2382,54.8672101 129.2382,79.1020072 C129.2382,104.38513 113.3358,124.731558 91.2642,124.731558 C83.8476,124.731558 76.8768,120.869652 74.4906,116.307659 C74.4906,116.307659 70.821,130.314812 69.9318,133.74608 C68.2788,140.117833 63.819,148.10508 60.8352,152.97742 C67.683,155.102942 74.9598,156.249304 82.5042,156.249304 C122.9214,156.249304 155.6862,123.405964 155.6862,82.8911377 C155.6862,42.3763116 122.9214,9.53236957 82.5042,9.53236957" id="Fill-2" fill="#404040"></path>
            </g>
        </g>
    </g>
</svg>